
             N(2D) + N-O -> N-N + O(1D) PES 1A', J. Chem.Phys. 113 (2000) 10983-109

           VA,VB,VC (eV) =  2.67300      2.67300      2.11330    

           AL(1),AL(2),AL(3) (A-1) =  1.50000      1.50000      1.00000    

           Matriz de las coordenadas de los terminos monoatomicos:

           -1.00000     3.00000    -1.00000    
           -1.00000    -1.00000     3.00000    
            3.00000    -1.00000    -1.00000    



           Parametros de la molecula diatomica No. 1

           DE = 9.26610         (eV)
           RE = 1.10340          (A)
           GRADO DEL POLINOMIO =           5
           CC(1 1)= 3.88769    (A-1)
           CC(1 2)=0.100392    (A-2)
           CC(1 3)=-.912322    (A-3)
           CC(1 4)=-2.73055    (A-4)
           CC(1 5)= 1.69645    (A-5)


           Parametros de la molecula diatomica No. 2

           DE = 6.14010         (eV)
           RE = 1.15980          (A)
           GRADO DEL POLINOMIO =           5
           CC(2 1)= 4.14169    (A-1)
           CC(2 2)=0.858731    (A-2)
           CC(2 3)=-.972979    (A-3)
           CC(2 4)=-3.70379    (A-4)
           CC(2 5)= 2.48770    (A-5)


           Parametros de la molecula diatomica No. 3

           DE = 6.14010         (eV)
           RE = 1.15980          (A)
           GRADO DEL POLINOMIO =           5
           CC(3 1)= 4.14169    (A-1)
           CC(3 2)=0.858731    (A-2)
           CC(3 3)=-.972979    (A-3)
           CC(3 4)=-3.70379    (A-4)
           CC(3 5)= 2.48770    (A-5)

           Estructura de referencia (A) :

           RABC(1) = 1.13430    RABC(2) = 2.00000    RABC(3) = 2.00000    

           Matriz de las coordenadas de simetria del termino triatomico:

            1.00000     0.00000     0.00000    
            0.00000    0.707100    0.707100    
            0.00000    0.707100    -.707100    

           GA(1),GA(2),GA(3) (A-1) =  2.89960      2.93103      0.00000    


           Opcion de coordenadas de simetria: 1


           Grado del polinomio: 6
           V0 =-.244328    
           CC1( 1) OR C( 1, 0, 0)=  16.968700    
           CC1( 2) OR C( 0, 1, 0)=  4.8575200    
           CC1( 3) OR C( 0, 0, 1)=  0.0000000    
           CC2( 1, 1) OR C( 2, 0, 0)=  56.034200    
           CC2( 1, 2) OR C( 1, 1, 0)= -18.508400    
           CC2( 1, 3) OR C( 1, 0, 1)=  0.0000000    
           CC2( 2, 2) OR C( 0, 2, 0)= -4.0796700    
           CC2( 2, 3) OR C( 0, 1, 1)=  0.0000000    
           CC2( 3, 3) OR C( 0, 0, 2)= -38.105500    
           CC3( 1, 1, 1) OR C( 3, 0, 0)=  183.28800    
           CC3( 1, 1, 2) OR C( 2, 1, 0)=  59.688900    
           CC3( 1, 1, 3) OR C( 2, 0, 1)=  0.0000000    
           CC3( 1, 2, 2) OR C( 1, 2, 0)= -48.633500    
           CC3( 1, 2, 3) OR C( 1, 1, 1)=  0.0000000    
           CC3( 1, 3, 3) OR C( 1, 0, 2)= -134.14300    
           CC3( 2, 2, 2) OR C( 0, 3, 0)=  7.2389500    
           CC3( 2, 2, 3) OR C( 0, 2, 1)=  0.0000000    
           CC3( 2, 3, 3) OR C( 0, 1, 2)=  43.378300    
           CC3( 3, 3, 3) OR C( 0, 0, 3)=  0.0000000    
           CC4( 1, 1, 1, 1) OR C( 4, 0, 0)=  55.660700    
           CC4( 1, 1, 1, 2) OR C( 3, 1, 0)=  221.50300    
           CC4( 1, 1, 1, 3) OR C( 3, 0, 1)=  0.0000000    
           CC4( 1, 1, 2, 2) OR C( 2, 2, 0)= -23.899000    
           CC4( 1, 1, 2, 3) OR C( 2, 1, 1)=  0.0000000    
           CC4( 1, 1, 3, 3) OR C( 2, 0, 2)= -177.69800    
           CC4( 1, 2, 2, 2) OR C( 1, 3, 0)=  49.853200    
           CC4( 1, 2, 2, 3) OR C( 1, 2, 1)=  0.0000000    
           CC4( 1, 2, 3, 3) OR C( 1, 1, 2)=  17.934900    
           CC4( 1, 3, 3, 3) OR C( 1, 0, 3)=  0.0000000    
           CC4( 2, 2, 2, 2) OR C( 0, 4, 0)= -4.0669600    
           CC4( 2, 2, 2, 3) OR C( 0, 3, 1)=  0.0000000    
           CC4( 2, 2, 3, 3) OR C( 0, 2, 2)=  35.162300    
           CC4( 2, 3, 3, 3) OR C( 0, 1, 3)=  0.0000000    
           CC4( 3, 3, 3, 3) OR C( 0, 0, 4)=  103.77900    
           CC5( 1, 1, 1, 1, 1) OR C( 5, 0, 0)= -54.518200    
           CC5( 1, 1, 1, 1, 2) OR C( 4, 1, 0)=  176.67800    
           CC5( 1, 1, 1, 1, 3) OR C( 4, 0, 1)=  0.0000000    
           CC5( 1, 1, 1, 2, 2) OR C( 3, 2, 0)=  150.76300    
           CC5( 1, 1, 1, 2, 3) OR C( 3, 1, 1)=  0.0000000    
           CC5( 1, 1, 1, 3, 3) OR C( 3, 0, 2)= -312.03900    
           CC5( 1, 1, 2, 2, 2) OR C( 2, 3, 0)=  14.073000    
           CC5( 1, 1, 2, 2, 3) OR C( 2, 2, 1)=  0.0000000    
           CC5( 1, 1, 2, 3, 3) OR C( 2, 1, 2)= -179.41300    
           CC5( 1, 1, 3, 3, 3) OR C( 2, 0, 3)=  0.0000000    
           CC5( 1, 2, 2, 2, 2) OR C( 1, 4, 0)=  51.178100    
           CC5( 1, 2, 2, 2, 3) OR C( 1, 3, 1)=  0.0000000    
           CC5( 1, 2, 2, 3, 3) OR C( 1, 2, 2)=  56.320900    
           CC5( 1, 2, 3, 3, 3) OR C( 1, 1, 3)=  0.0000000    
           CC5( 1, 3, 3, 3, 3) OR C( 1, 0, 4)=  158.47700    
           CC5( 2, 2, 2, 2, 2) OR C( 0, 5, 0)=  1.8730700    
           CC5( 2, 2, 2, 2, 3) OR C( 0, 4, 1)=  0.0000000    
           CC5( 2, 2, 2, 3, 3) OR C( 0, 3, 2)=  17.020900    
           CC5( 2, 2, 3, 3, 3) OR C( 0, 2, 3)=  0.0000000    
           CC5( 2, 3, 3, 3, 3) OR C( 0, 1, 4)= -59.694300    
           CC5( 3, 3, 3, 3, 3) OR C( 0, 0, 5)=  0.0000000    
           CC6( 1, 1, 1, 1, 1, 1) OR C( 6, 0, 0)=  15.194900    
           CC6( 1, 1, 1, 1, 1, 2) OR C( 5, 1, 0)= -78.308600    
           CC6( 1, 1, 1, 1, 1, 3) OR C( 5, 0, 1)=  0.0000000    
           CC6( 1, 1, 1, 1, 2, 2) OR C( 4, 2, 0)=  3.6847000    
           CC6( 1, 1, 1, 1, 2, 3) OR C( 4, 1, 1)=  0.0000000    
           CC6( 1, 1, 1, 1, 3, 3) OR C( 4, 0, 2)=  82.405100    
           CC6( 1, 1, 1, 2, 2, 2) OR C( 3, 3, 0)=  56.899100    
           CC6( 1, 1, 1, 2, 2, 3) OR C( 3, 2, 1)=  0.0000000    
           CC6( 1, 1, 1, 2, 3, 3) OR C( 3, 1, 2)= -204.16600    
           CC6( 1, 1, 1, 3, 3, 3) OR C( 3, 0, 3)=  0.0000000    
           CC6( 1, 1, 2, 2, 2, 2) OR C( 2, 4, 0)=  93.838500    
           CC6( 1, 1, 2, 2, 2, 3) OR C( 2, 3, 1)=  0.0000000    
           CC6( 1, 1, 2, 2, 3, 3) OR C( 2, 2, 2)=  5.9270300    
           CC6( 1, 1, 2, 3, 3, 3) OR C( 2, 1, 3)=  0.0000000    
           CC6( 1, 1, 3, 3, 3, 3) OR C( 2, 0, 4)=  112.28900    
           CC6( 1, 2, 2, 2, 2, 2) OR C( 1, 5, 0)=  14.640300    
           CC6( 1, 2, 2, 2, 2, 3) OR C( 1, 4, 1)=  0.0000000    
           CC6( 1, 2, 2, 2, 3, 3) OR C( 1, 3, 2)= -106.10200    
           CC6( 1, 2, 2, 3, 3, 3) OR C( 1, 2, 3)=  0.0000000    
           CC6( 1, 2, 3, 3, 3, 3) OR C( 1, 1, 4)=  113.15100    
           CC6( 1, 3, 3, 3, 3, 3) OR C( 1, 0, 5)=  0.0000000    
           CC6( 2, 2, 2, 2, 2, 2) OR C( 0, 6, 0)= -1.9620800    
           CC6( 2, 2, 2, 2, 2, 3) OR C( 0, 5, 1)=  0.0000000    
           CC6( 2, 2, 2, 2, 3, 3) OR C( 0, 4, 2)=  41.760600    
           CC6( 2, 2, 2, 3, 3, 3) OR C( 0, 3, 3)=  0.0000000    
           CC6( 2, 2, 3, 3, 3, 3) OR C( 0, 2, 4)= -28.754900    
           CC6( 2, 3, 3, 3, 3, 3) OR C( 0, 1, 5)=  0.0000000    
           CC6( 3, 3, 3, 3, 3, 3) OR C( 0, 0, 6)= -74.606100    

 R1,R2,R3 (A), ALPHA (deg):

 1.13260      1.19990      2.33250      180.000    

 energy (eV):

-10.8785    

 derivatives respect to R1,R2,R3 (eV/A):

 7.08781      7.09052     -7.09218    

 derivatives respect to R1,R2,ALPHA (eV/A,eV/rad):

-.437511E-02 -.165780E-02 -.506047E-15
